^C:\USERS\ALICJ\DESKTOP\C++\ZADANIA NA ZALICZENIE\PINT2D KOLOR\COLOURPOINT.CPP
/c /ZI /JMC /nologo /W3 /WX- /diagnostics:classic /sdl /Od /Oy- /D _MBCS /Gm- /EHsc /RTC1 /MDd /GS /fp:precise /permissive- /Zc:wchar_t /Zc:forScope /Zc:inline /Fo"DEBUG\\" /Fd"DEBUG\VC141.PDB" /Gd /TP /analyze- /FC C:\USERS\ALICJ\DESKTOP\C++\ZADANIA NA ZALICZENIE\PINT2D KOLOR\COLOURPOINT.CPP
^C:\USERS\ALICJ\DESKTOP\C++\ZADANIA NA ZALICZENIE\PINT2D KOLOR\POINT.CPP
/c /ZI /JMC /nologo /W3 /WX- /diagnostics:classic /sdl /Od /Oy- /D _MBCS /Gm- /EHsc /RTC1 /MDd /GS /fp:precise /permissive- /Zc:wchar_t /Zc:forScope /Zc:inline /Fo"DEBUG\\" /Fd"DEBUG\VC141.PDB" /Gd /TP /analyze- /FC C:\USERS\ALICJ\DESKTOP\C++\ZADANIA NA ZALICZENIE\PINT2D KOLOR\POINT.CPP
^C:\USERS\ALICJ\DESKTOP\C++\ZADANIA NA ZALICZENIE\PINT2D KOLOR\SOURCE.CPP
/c /ZI /JMC /nologo /W3 /WX- /diagnostics:classic /sdl /Od /Oy- /D _MBCS /Gm- /EHsc /RTC1 /MDd /GS /fp:precise /permissive- /Zc:wchar_t /Zc:forScope /Zc:inline /Fo"DEBUG\\" /Fd"DEBUG\VC141.PDB" /Gd /TP /analyze- /FC C:\USERS\ALICJ\DESKTOP\C++\ZADANIA NA ZALICZENIE\PINT2D KOLOR\SOURCE.CPP
