^C:\USERS\ALICJ\DESKTOP\C++\ZADANIA NA ZALICZENIE\PINT2D KOLOR\COLOURPOINT.CPP|C:\USERS\ALICJ\DESKTOP\C++\ZADANIA NA ZALICZENIE\PINT2D KOLOR\POINT.CPP|C:\USERS\ALICJ\DESKTOP\C++\ZADANIA NA ZALICZENIE\PINT2D KOLOR\SOURCE.CPP
C:\USERS\ALICJ\DESKTOP\C++\ZADANIA NA ZALICZENIE\PINT2D KOLOR\POINT2D\DEBUG\VC141.PDB
C:\USERS\ALICJ\DESKTOP\C++\ZADANIA NA ZALICZENIE\PINT2D KOLOR\POINT2D\DEBUG\VC141.IDB
C:\USERS\ALICJ\DESKTOP\C++\ZADANIA NA ZALICZENIE\PINT2D KOLOR\POINT2D\DEBUG\SOURCE.OBJ
C:\USERS\ALICJ\DESKTOP\C++\ZADANIA NA ZALICZENIE\PINT2D KOLOR\POINT2D\DEBUG\POINT.OBJ
C:\USERS\ALICJ\DESKTOP\C++\ZADANIA NA ZALICZENIE\PINT2D KOLOR\POINT2D\DEBUG\COLOURPOINT.OBJ
^C:\USERS\ALICJ\DESKTOP\C++\ZADANIA NA ZALICZENIE\PINT2D KOLOR\COLOURPOINT.CPP
C:\USERS\ALICJ\DESKTOP\C++\ZADANIA NA ZALICZENIE\PINT2D KOLOR\POINT2D\DEBUG\VC141.PDB
^C:\USERS\ALICJ\DESKTOP\C++\ZADANIA NA ZALICZENIE\PINT2D KOLOR\POINT.CPP
C:\USERS\ALICJ\DESKTOP\C++\ZADANIA NA ZALICZENIE\PINT2D KOLOR\POINT2D\DEBUG\VC141.PDB
^C:\USERS\ALICJ\DESKTOP\C++\ZADANIA NA ZALICZENIE\PINT2D KOLOR\SOURCE.CPP
C:\USERS\ALICJ\DESKTOP\C++\ZADANIA NA ZALICZENIE\PINT2D KOLOR\POINT2D\DEBUG\VC141.PDB
