^C:\USERS\ALICJ\DESKTOP\C++\ZADANIA NA ZALICZENIE\PSY I KOTY\PSY_I_KOTY\RASA.CPP
/c /ZI /JMC /nologo /W3 /WX- /diagnostics:classic /sdl /Od /Oy- /D _MBCS /Gm- /EHsc /RTC1 /MDd /GS /fp:precise /permissive- /Zc:wchar_t /Zc:forScope /Zc:inline /Fo"DEBUG\\" /Fd"DEBUG\VC141.PDB" /Gd /TP /analyze- /FC C:\USERS\ALICJ\DESKTOP\C++\ZADANIA NA ZALICZENIE\PSY I KOTY\PSY_I_KOTY\RASA.CPP
^C:\USERS\ALICJ\DESKTOP\C++\ZADANIA NA ZALICZENIE\PSY I KOTY\PSY_I_KOTY\SOURCE.CPP
/c /ZI /JMC /nologo /W3 /WX- /diagnostics:classic /sdl /Od /Oy- /D _MBCS /Gm- /EHsc /RTC1 /MDd /GS /fp:precise /permissive- /Zc:wchar_t /Zc:forScope /Zc:inline /Fo"DEBUG\\" /Fd"DEBUG\VC141.PDB" /Gd /TP /analyze- /FC C:\USERS\ALICJ\DESKTOP\C++\ZADANIA NA ZALICZENIE\PSY I KOTY\PSY_I_KOTY\SOURCE.CPP
^C:\USERS\ALICJ\DESKTOP\C++\ZADANIA NA ZALICZENIE\PSY I KOTY\PSY_I_KOTY\ZWIERZE.CPP
/c /ZI /JMC /nologo /W3 /WX- /diagnostics:classic /sdl /Od /Oy- /D _MBCS /Gm- /EHsc /RTC1 /MDd /GS /fp:precise /permissive- /Zc:wchar_t /Zc:forScope /Zc:inline /Fo"DEBUG\\" /Fd"DEBUG\VC141.PDB" /Gd /TP /analyze- /FC C:\USERS\ALICJ\DESKTOP\C++\ZADANIA NA ZALICZENIE\PSY I KOTY\PSY_I_KOTY\ZWIERZE.CPP
