^C:\USERS\ALICJ\DESKTOP\C++\ZADANIA NA ZALICZENIE\PSY I KOTY\PSY_I_KOTY\DEBUG\RASA.OBJ|C:\USERS\ALICJ\DESKTOP\C++\ZADANIA NA ZALICZENIE\PSY I KOTY\PSY_I_KOTY\DEBUG\SOURCE.OBJ|C:\USERS\ALICJ\DESKTOP\C++\ZADANIA NA ZALICZENIE\PSY I KOTY\PSY_I_KOTY\DEBUG\ZWIERZE.OBJ
C:\USERS\ALICJ\DESKTOP\C++\ZADANIA NA ZALICZENIE\PSY I KOTY\PSY_I_KOTY\DEBUG\PSY_I_KOTY.ILK
C:\USERS\ALICJ\DESKTOP\C++\ZADANIA NA ZALICZENIE\PSY I KOTY\PSY_I_KOTY\DEBUG\PSY_I_KOTY.EXE
C:\USERS\ALICJ\DESKTOP\C++\ZADANIA NA ZALICZENIE\PSY I KOTY\PSY_I_KOTY\DEBUG\PSY_I_KOTY.PDB
